EESchema Schematic File Version 4
LIBS:ESP_BaPoTeSta-cache
EELAYER 26 0
EELAYER END
$Descr A4 11693 8268
encoding utf-8
Sheet 1 1
Title "ESP BaPoTeSta"
Date "2019-03"
Rev "v0.8"
Comp "Martin Schuster"
Comment1 "https://git.io/ESPTemp"
Comment2 "https://gitlab.com/schumar/ESP_BaPoTeSta"
Comment3 "(and generic sensor development board)"
Comment4 "ESP8266/ATmega328 Battery Powered Temperature Station"
$EndDescr
$Comp
L Device:R R4
U 1 1 5662879A
P 7800 4700
F 0 "R4" V 7700 4650 50  0000 C CNN
F 1 "103" V 7800 4700 50  0000 C CNN
F 2 "Resistor_SMD:R_1206_3216Metric_Pad1.42x1.75mm_HandSolder" V 7730 4700 50  0001 C CNN
F 3 "" H 7800 4700 50  0000 C CNN
	1    7800 4700
	-1   0    0    1   
$EndComp
$Comp
L Device:R R13
U 1 1 56628865
P 7200 4700
F 0 "R13" V 7280 4700 50  0000 C CNN
F 1 "103" V 7200 4700 50  0000 C CNN
F 2 "Resistor_SMD:R_1206_3216Metric_Pad1.42x1.75mm_HandSolder" V 7130 4700 50  0001 C CNN
F 3 "" H 7200 4700 50  0000 C CNN
	1    7200 4700
	-1   0    0    1   
$EndComp
$Comp
L Device:R R6
U 1 1 56628956
P 7300 6050
F 0 "R6" V 7380 6050 50  0000 C CNN
F 1 "103" V 7300 6050 50  0000 C CNN
F 2 "Resistor_SMD:R_1206_3216Metric_Pad1.42x1.75mm_HandSolder" V 7230 6050 50  0001 C CNN
F 3 "" H 7300 6050 50  0000 C CNN
	1    7300 6050
	-1   0    0    1   
$EndComp
$Comp
L Device:R R3
U 1 1 56628A61
P 5300 4700
F 0 "R3" V 5380 4700 50  0000 C CNN
F 1 "103" V 5300 4700 50  0000 C CNN
F 2 "Resistor_SMD:R_1206_3216Metric_Pad1.42x1.75mm_HandSolder" V 5230 4700 50  0001 C CNN
F 3 "" H 5300 4700 50  0000 C CNN
	1    5300 4700
	-1   0    0    1   
$EndComp
$Comp
L power:VCC #PWR01
U 1 1 566291DB
P 6300 4500
F 0 "#PWR01" H 6300 4350 50  0001 C CNN
F 1 "VCC" H 6300 4650 50  0000 C CNN
F 2 "" H 6300 4500 50  0000 C CNN
F 3 "" H 6300 4500 50  0000 C CNN
	1    6300 4500
	1    0    0    -1  
$EndComp
$Comp
L power:GND #PWR02
U 1 1 56629270
P 6300 6300
F 0 "#PWR02" H 6300 6050 50  0001 C CNN
F 1 "GND" H 6300 6150 50  0000 C CNN
F 2 "" H 6300 6300 50  0000 C CNN
F 3 "" H 6300 6300 50  0000 C CNN
	1    6300 6300
	1    0    0    -1  
$EndComp
$Comp
L Device:R R1
U 1 1 56629976
P 8500 2250
F 0 "R1" V 8580 2250 50  0000 C CNN
F 1 "564" V 8500 2250 50  0000 C CNN
F 2 "Resistor_SMD:R_1206_3216Metric_Pad1.42x1.75mm_HandSolder" V 8430 2250 50  0001 C CNN
F 3 "" H 8500 2250 50  0000 C CNN
	1    8500 2250
	1    0    0    -1  
$EndComp
$Comp
L Device:R R2
U 1 1 566299C7
P 8500 2950
F 0 "R2" V 8580 2950 50  0000 C CNN
F 1 "104" V 8500 2950 50  0000 C CNN
F 2 "Resistor_SMD:R_1206_3216Metric_Pad1.42x1.75mm_HandSolder" V 8430 2950 50  0001 C CNN
F 3 "" H 8500 2950 50  0000 C CNN
	1    8500 2950
	1    0    0    -1  
$EndComp
$Comp
L Connector_Generic:Conn_01x03 P1
U 1 1 5662AE2D
P 10150 5200
F 0 "P1" H 10150 5400 50  0000 C CNN
F 1 "Prog" V 10250 5200 50  0000 C CNN
F 2 "Connector_PinHeader_2.54mm:PinHeader_1x03_P2.54mm_Vertical" H 10150 5200 50  0001 C CNN
F 3 "" H 10150 5200 50  0000 C CNN
	1    10150 5200
	1    0    0    1   
$EndComp
$Comp
L power:GND #PWR03
U 1 1 5662AF46
P 9900 5450
F 0 "#PWR03" H 9900 5200 50  0001 C CNN
F 1 "GND" H 9900 5300 50  0000 C CNN
F 2 "" H 9900 5450 50  0000 C CNN
F 3 "" H 9900 5450 50  0000 C CNN
	1    9900 5450
	1    0    0    -1  
$EndComp
$Comp
L Connector_Generic:Conn_01x02 P2
U 1 1 5662C8D4
P 6450 3500
F 0 "P2" H 6450 3600 50  0000 C CNN
F 1 "Battery" V 6550 3450 50  0000 C CNN
F 2 "Connector_PinHeader_2.54mm:PinHeader_1x02_P2.54mm_Vertical" H 6450 3500 50  0001 C CNN
F 3 "" H 6450 3500 50  0000 C CNN
	1    6450 3500
	-1   0    0    1   
$EndComp
$Comp
L power:+BATT #PWR04
U 1 1 5662D0E0
P 8500 1400
F 0 "#PWR04" H 8500 1250 50  0001 C CNN
F 1 "+BATT" H 8500 1540 50  0000 C CNN
F 2 "" H 8500 1400 50  0000 C CNN
F 3 "" H 8500 1400 50  0000 C CNN
	1    8500 1400
	1    0    0    -1  
$EndComp
$Comp
L Device:R R8
U 1 1 568D6E4C
P 5600 4700
F 0 "R8" V 5680 4700 50  0000 C CNN
F 1 "103" V 5600 4700 50  0000 C CNN
F 2 "Resistor_SMD:R_1206_3216Metric_Pad1.42x1.75mm_HandSolder" V 5530 4700 50  0001 C CNN
F 3 "" H 5600 4700 50  0000 C CNN
	1    5600 4700
	1    0    0    -1  
$EndComp
$Comp
L Connector_Generic:Conn_01x02 P4
U 1 1 568D8829
P 8000 5600
F 0 "P4" H 8000 5750 50  0000 C CNN
F 1 "Flash" V 8100 5600 50  0000 C CNN
F 2 "Connector_PinHeader_2.54mm:PinHeader_1x02_P2.54mm_Vertical" H 8000 5600 50  0001 C CNN
F 3 "" H 8000 5600 50  0000 C CNN
	1    8000 5600
	1    0    0    1   
$EndComp
$Comp
L Connector_Generic:Conn_01x01 P5
U 1 1 568ED6C5
P 7500 5350
F 0 "P5" H 7350 5400 50  0000 C CNN
F 1 "Conf" V 7600 5350 50  0000 C CNN
F 2 "Connector_PinHeader_2.54mm:PinHeader_1x01_P2.54mm_Vertical" H 7500 5350 50  0001 C CNN
F 3 "" H 7500 5350 50  0000 C CNN
	1    7500 5350
	1    0    0    1   
$EndComp
$Comp
L Device:C C1
U 1 1 56928F2E
P 9200 1550
F 0 "C1" H 9225 1650 50  0000 L CNN
F 1 "1u" H 9225 1450 50  0000 L CNN
F 2 "Capacitor_SMD:C_1206_3216Metric_Pad1.42x1.75mm_HandSolder" H 9238 1400 50  0001 C CNN
F 3 "" H 9200 1550 50  0000 C CNN
	1    9200 1550
	1    0    0    -1  
$EndComp
$Comp
L Device:C C3
U 1 1 5692970C
P 10200 1550
F 0 "C3" H 10225 1650 50  0000 L CNN
F 1 "1u" H 10225 1450 50  0000 L CNN
F 2 "Capacitor_SMD:C_1206_3216Metric_Pad1.42x1.75mm_HandSolder" H 10238 1400 50  0001 C CNN
F 3 "" H 10200 1550 50  0000 C CNN
	1    10200 1550
	1    0    0    -1  
$EndComp
$Comp
L Connector_Generic:Conn_01x03 P13
U 1 1 575B2511
P 3100 1700
F 0 "P13" H 3100 1900 50  0000 C CNN
F 1 "CONN_01x03" V 3200 1700 50  0000 C CNN
F 2 "Connector_PinHeader_2.54mm:PinHeader_1x03_P2.54mm_Vertical" H 3100 1700 50  0001 C CNN
F 3 "" H 3100 1700 50  0000 C CNN
	1    3100 1700
	0    -1   1    0   
$EndComp
$Comp
L Connector_Generic:Conn_01x04 P15
U 1 1 575BEE39
P 3700 1700
F 0 "P15" H 3700 1950 50  0000 C CNN
F 1 "CONN_01x04" V 3800 1700 50  0000 C CNN
F 2 "Connector_PinHeader_2.54mm:PinHeader_1x04_P2.54mm_Vertical" H 3700 1700 50  0001 C CNN
F 3 "" H 3700 1700 50  0000 C CNN
	1    3700 1700
	0    -1   1    0   
$EndComp
$Comp
L Connector_Generic:Conn_01x04 P9
U 1 1 575BF812
P 1800 1700
F 0 "P9" H 1800 1950 50  0000 C CNN
F 1 "CONN_01x04" V 1900 1700 50  0000 C CNN
F 2 "Connector_PinHeader_2.54mm:PinHeader_1x04_P2.54mm_Vertical" H 1800 1700 50  0001 C CNN
F 3 "" H 1800 1700 50  0000 C CNN
	1    1800 1700
	0    -1   1    0   
$EndComp
$Comp
L power:GND #PWR05
U 1 1 575C17DF
P 1300 1650
F 0 "#PWR05" H 1300 1400 50  0001 C CNN
F 1 "GND" H 1300 1500 50  0000 C CNN
F 2 "" H 1300 1650 50  0000 C CNN
F 3 "" H 1300 1650 50  0000 C CNN
	1    1300 1650
	1    0    0    -1  
$EndComp
$Comp
L Device:R R11
U 1 1 575C2C91
P 2600 950
F 0 "R11" V 2680 950 50  0000 C CNN
F 1 "472" V 2600 950 50  0000 C CNN
F 2 "Resistor_SMD:R_1206_3216Metric_Pad1.42x1.75mm_HandSolder" V 2530 950 50  0001 C CNN
F 3 "" H 2600 950 50  0000 C CNN
	1    2600 950 
	-1   0    0    1   
$EndComp
$Comp
L Device:R R7
U 1 1 575C300B
P 1900 950
F 0 "R7" V 1980 950 50  0000 C CNN
F 1 "472" V 1900 950 50  0000 C CNN
F 2 "Resistor_SMD:R_1206_3216Metric_Pad1.42x1.75mm_HandSolder" V 1830 950 50  0001 C CNN
F 3 "" H 1900 950 50  0000 C CNN
	1    1900 950 
	-1   0    0    1   
$EndComp
NoConn ~ 3700 1500
$Comp
L Device:R R12
U 1 1 575C3DC1
P 3100 950
F 0 "R12" V 3180 950 50  0000 C CNN
F 1 "472" V 3100 950 50  0000 C CNN
F 2 "Resistor_SMD:R_1206_3216Metric_Pad1.42x1.75mm_HandSolder" V 3030 950 50  0001 C CNN
F 3 "" H 3100 950 50  0000 C CNN
	1    3100 950 
	-1   0    0    1   
$EndComp
Text Label 7000 5150 0    30   ~ 0
GPIO2
Text Label 7400 4950 0    30   ~ 0
GPIO0
Text Label 7000 5350 0    30   ~ 0
GPIO4
Text Label 7000 5850 0    30   ~ 0
GPIO15
Text GLabel 7000 5650 2    40   Input ~ 0
PwrSens
Text GLabel 7000 5450 2    40   Input ~ 0
1Wire
Text GLabel 5600 5350 0    40   Input ~ 0
ADC
Text Label 5600 5150 2    30   ~ 0
CH_PD
Text GLabel 9000 2600 2    40   Input ~ 0
ADC
Text GLabel 4000 1100 2    40   Input ~ 0
DHTData
Text GLabel 3300 1100 2    40   Input ~ 0
1Wire
Text GLabel 2700 1200 2    40   Input ~ 0
SCL
Text GLabel 2700 1100 2    40   Input ~ 0
SDA
Text GLabel 950  1000 0    30   Input ~ 0
PwrSens
$Comp
L RF_Module:ESP-12F U2
U 1 1 5764BF50
P 6300 5550
F 0 "U2" H 6300 5450 50  0000 C CNN
F 1 "ESP-12" H 6300 5650 50  0000 C CNN
F 2 "RF_Module:ESP-12E" H 6300 5550 50  0001 C CNN
F 3 "" H 6300 5550 50  0001 C CNN
	1    6300 5550
	1    0    0    -1  
$EndComp
Text GLabel 7300 5150 2    40   Input ~ 0
DHTData
Text GLabel 7000 5550 2    40   Input ~ 0
SDA
Text GLabel 7000 5750 2    40   Input ~ 0
SCL
$Comp
L power:VCC #PWR06
U 1 1 58285E7A
P 10600 1400
F 0 "#PWR06" H 10600 1250 50  0001 C CNN
F 1 "VCC" H 10600 1550 50  0000 C CNN
F 2 "" H 10600 1400 50  0000 C CNN
F 3 "" H 10600 1400 50  0000 C CNN
	1    10600 1400
	1    0    0    -1  
$EndComp
$Comp
L power:GND #PWR07
U 1 1 58285ED9
P 10600 3700
F 0 "#PWR07" H 10600 3450 50  0001 C CNN
F 1 "GND" H 10600 3550 50  0000 C CNN
F 2 "" H 10600 3700 50  0000 C CNN
F 3 "" H 10600 3700 50  0000 C CNN
	1    10600 3700
	1    0    0    -1  
$EndComp
Text GLabel 7000 5050 2    40   Input ~ 0
TXD
Text GLabel 7000 5250 2    40   Input ~ 0
RXD
Text GLabel 9950 5200 0    40   Input ~ 0
RXD
Text GLabel 9950 5100 0    40   Input ~ 0
TXD
$Comp
L Device:R R16
U 1 1 5828CCFA
P 4700 3400
F 0 "R16" V 4780 3400 50  0000 C CNN
F 1 "202" V 4700 3400 50  0000 C CNN
F 2 "Resistor_SMD:R_1206_3216Metric_Pad1.42x1.75mm_HandSolder" V 4630 3400 50  0001 C CNN
F 3 "" H 4700 3400 50  0000 C CNN
	1    4700 3400
	1    0    0    -1  
$EndComp
NoConn ~ 4100 2300
NoConn ~ 4000 2300
NoConn ~ 3900 2300
$Comp
L Battery_Management:MCP73831-2-OT U3
U 1 1 5828E5BE
P 5100 2900
F 0 "U3" H 4800 3150 50  0000 L CNN
F 1 "MCP73831-2-OT" H 5150 2550 50  0000 L CNN
F 2 "Package_TO_SOT_SMD:SOT-23-5_HandSoldering" H 5150 2650 50  0001 L CIN
F 3 "" H 4950 2850 50  0000 C CNN
	1    5100 2900
	1    0    0    -1  
$EndComp
$Comp
L Device:R R14
U 1 1 5828EC1E
P 6000 2550
F 0 "R14" V 6080 2550 50  0000 C CNN
F 1 "221" V 6000 2550 50  0000 C CNN
F 2 "Resistor_SMD:R_1206_3216Metric_Pad1.42x1.75mm_HandSolder" V 5930 2550 50  0001 C CNN
F 3 "" H 6000 2550 50  0000 C CNN
	1    6000 2550
	1    0    0    -1  
$EndComp
$Comp
L Device:R R15
U 1 1 5828ED68
P 6000 3450
F 0 "R15" V 6080 3450 50  0000 C CNN
F 1 "221" V 6000 3450 50  0000 C CNN
F 2 "Resistor_SMD:R_1206_3216Metric_Pad1.42x1.75mm_HandSolder" V 5930 3450 50  0001 C CNN
F 3 "" H 6000 3450 50  0000 C CNN
	1    6000 3450
	1    0    0    -1  
$EndComp
$Comp
L Device:LED_Small_ALT D1
U 1 1 5828EE4C
P 6000 2850
F 0 "D1" H 5950 2975 50  0000 L CNN
F 1 "Red" V 6000 2750 50  0000 R CNN
F 2 "LED_SMD:LED_0805_2012Metric_Pad1.15x1.40mm_HandSolder" V 6000 2850 50  0001 C CNN
F 3 "" V 6000 2850 50  0000 C CNN
	1    6000 2850
	0    -1   -1   0   
$EndComp
$Comp
L Device:LED_Small_ALT D2
U 1 1 5828EEDC
P 6000 3150
F 0 "D2" H 5950 3275 50  0000 L CNN
F 1 "Blu" V 6000 3050 50  0000 R CNN
F 2 "LED_SMD:LED_0805_2012Metric_Pad1.15x1.40mm_HandSolder" V 6000 3150 50  0001 C CNN
F 3 "" V 6000 3150 50  0000 C CNN
	1    6000 3150
	0    -1   -1   0   
$EndComp
Text Label 5500 3000 0    60   ~ 0
Status
Text Label 4650 2300 0    60   ~ 0
Vin
Text Label 6000 2750 0    60   ~ 0
Rred
Text Label 6000 3300 0    60   ~ 0
Rblu
$Comp
L Device:C C5
U 1 1 5829CCE0
P 4500 3400
F 0 "C5" H 4525 3500 50  0000 L CNN
F 1 "4u7" H 4525 3300 50  0000 L CNN
F 2 "Capacitor_SMD:C_1206_3216Metric_Pad1.42x1.75mm_HandSolder" H 4538 3250 50  0001 C CNN
F 3 "" H 4500 3400 50  0000 C CNN
	1    4500 3400
	1    0    0    -1  
$EndComp
$Comp
L Device:C C2
U 1 1 583F3D5B
P 10600 2650
F 0 "C2" H 10625 2750 50  0000 L CNN
F 1 "0m1" H 10625 2550 50  0000 L CNN
F 2 "Capacitor_SMD:C_1206_3216Metric_Pad1.42x1.75mm_HandSolder" H 10638 2500 50  0001 C CNN
F 3 "" H 10600 2650 50  0000 C CNN
	1    10600 2650
	1    0    0    -1  
$EndComp
$Comp
L NCP300:NCP300 U4
U 1 1 5843822E
P 7250 3400
F 0 "U4" H 7000 3200 50  0000 L CNN
F 1 "NCP300" H 7250 3600 50  0000 C CNN
F 2 "Package_TO_SOT_SMD:SOT-23-5_HandSoldering" H 7250 3100 50  0001 C CNN
F 3 "" H 7250 3150 50  0001 C CNN
	1    7250 3400
	1    0    0    -1  
$EndComp
$Comp
L Device:Q_NMOS_GSD Q2
U 1 1 58438CA3
P 7900 3600
F 0 "Q2" V 7900 3850 50  0000 R CNN
F 1 "BSS806N" V 7800 4050 50  0000 R CNN
F 2 "Package_TO_SOT_SMD:SOT-23_Handsoldering" H 8100 3700 50  0001 C CNN
F 3 "" H 7900 3600 50  0000 C CNN
	1    7900 3600
	0    1    1    0   
$EndComp
$Comp
L power:GNDPWR #PWR08
U 1 1 5843C666
P 5100 3700
F 0 "#PWR08" H 5100 3500 50  0001 C CNN
F 1 "GNDPWR" H 5100 3570 50  0000 C CNN
F 2 "" H 5100 3650 50  0000 C CNN
F 3 "" H 5100 3650 50  0000 C CNN
	1    5100 3700
	1    0    0    -1  
$EndComp
$Comp
L power:PWR_FLAG #FLG010
U 1 1 5843D22A
P 9700 3700
F 0 "#FLG010" H 9700 3795 50  0001 C CNN
F 1 "PWR_FLAG" H 9700 3880 50  0000 C CNN
F 2 "" H 9700 3700 50  0000 C CNN
F 3 "" H 9700 3700 50  0000 C CNN
	1    9700 3700
	-1   0    0    1   
$EndComp
Text Label 7600 3400 0    30   ~ 0
S_UV
$Comp
L MCU_Microchip_ATmega:ATmega328P-AU U5
U 1 1 5843ED40
P 2200 5800
F 0 "U5" H 1850 7250 50  0000 L BNN
F 1 "ATMEGA328P-A" V 2000 5800 100 0000 C BNN
F 2 "Package_QFP:TQFP-32_7x7mm_P0.8mm" V 1900 5800 50  0001 C CIN
F 3 "" H 2200 5800 50  0000 C CNN
	1    2200 5800
	1    0    0    -1  
$EndComp
$Comp
L power:VCC #PWR011
U 1 1 5843F6B1
P 2200 4200
F 0 "#PWR011" H 2200 4050 50  0001 C CNN
F 1 "VCC" H 2200 4350 50  0000 C CNN
F 2 "" H 2200 4200 50  0000 C CNN
F 3 "" H 2200 4200 50  0000 C CNN
	1    2200 4200
	1    0    0    -1  
$EndComp
$Comp
L power:GND #PWR012
U 1 1 5843FF83
P 2200 7400
F 0 "#PWR012" H 2200 7150 50  0001 C CNN
F 1 "GND" H 2200 7250 50  0000 C CNN
F 2 "" H 2200 7400 50  0000 C CNN
F 3 "" H 2200 7400 50  0000 C CNN
	1    2200 7400
	1    0    0    -1  
$EndComp
Text GLabel 2900 6300 2    40   Input ~ 0
RXD
Text GLabel 2900 6400 2    40   Input ~ 0
TXD
Text GLabel 2900 6000 2    40   Input ~ 0
SCL
Text GLabel 2900 5900 2    40   Input ~ 0
SDA
Text GLabel 2900 5800 2    40   Input ~ 0
ADC
NoConn ~ 1600 4900
Text GLabel 5600 4950 0    40   Input ~ 0
RST
Text GLabel 2800 6150 2    40   Input ~ 0
RST
Text GLabel 2900 6500 2    40   Input ~ 0
PwrSens
Text GLabel 2900 6800 2    40   Input ~ 0
DHTData
Text GLabel 2900 4700 2    40   Input ~ 0
1Wire
$Comp
L Connector:TestPoint TP2
U 1 1 5844A62F
P 2900 5700
F 0 "TP2" V 2900 5950 50  0000 C CNN
F 1 "TEST_1P" V 2800 5950 50  0001 C CNN
F 2 "TestPoint:TestPoint_Pad_1.0x1.0mm" H 3100 5700 50  0001 C CNN
F 3 "" H 3100 5700 50  0000 C CNN
	1    2900 5700
	0    1    1    0   
$EndComp
$Comp
L Connector:TestPoint TP3
U 1 1 5844B108
P 2900 6600
F 0 "TP3" V 2900 6850 50  0000 C CNN
F 1 "TEST_1P" V 2800 6850 50  0001 C CNN
F 2 "TestPoint:TestPoint_Pad_1.0x1.0mm" H 3100 6600 50  0001 C CNN
F 3 "" H 3100 6600 50  0000 C CNN
	1    2900 6600
	0    1    1    0   
$EndComp
$Comp
L Connector:TestPoint TP4
U 1 1 5844B1BA
P 2900 6700
F 0 "TP4" V 2900 6950 50  0000 C CNN
F 1 "TEST_1P" V 2800 6950 50  0001 C CNN
F 2 "TestPoint:TestPoint_Pad_1.0x1.0mm" H 3100 6700 50  0001 C CNN
F 3 "" H 3100 6700 50  0000 C CNN
	1    2900 6700
	0    1    1    0   
$EndComp
$Comp
L Connector:TestPoint TP1
U 1 1 5844B527
P 2900 5100
F 0 "TP1" V 2900 5350 50  0000 C CNN
F 1 "TEST_1P" V 2800 5350 50  0001 C CNN
F 2 "TestPoint:TestPoint_Pad_1.0x1.0mm" H 3100 5100 50  0001 C CNN
F 3 "" H 3100 5100 50  0000 C CNN
	1    2900 5100
	0    1    1    0   
$EndComp
NoConn ~ 2800 4600
NoConn ~ 2800 5200
NoConn ~ 2800 5300
NoConn ~ 2800 5500
NoConn ~ 2800 7000
NoConn ~ 1600 4800
NoConn ~ 1600 4600
Text Label 2800 6600 0    40   ~ 0
PD3
Text Label 2800 6700 0    40   ~ 0
PD4
Text Label 2800 5700 0    40   ~ 0
PC3
Text Label 2800 5100 0    40   ~ 0
SCK
$Comp
L Connector:TestPoint TP5
U 1 1 584408F4
P 2300 4200
F 0 "TP5" V 2300 4450 50  0000 C CNN
F 1 "TEST_1P" V 2200 4450 50  0001 C CNN
F 2 "TestPoint:TestPoint_Pad_1.0x1.0mm" H 2500 4200 50  0001 C CNN
F 3 "" H 2500 4200 50  0000 C CNN
	1    2300 4200
	0    1    1    0   
$EndComp
$Comp
L Connector:TestPoint TP6
U 1 1 58440CF8
P 2200 7350
F 0 "TP6" V 2200 7600 50  0000 C CNN
F 1 "TEST_1P" V 2100 7600 50  0001 C CNN
F 2 "TestPoint:TestPoint_Pad_1.0x1.0mm" H 2400 7350 50  0001 C CNN
F 3 "" H 2400 7350 50  0000 C CNN
	1    2200 7350
	0    -1   -1   0   
$EndComp
$Comp
L Connector_Generic:Conn_01x03 P6
U 1 1 58444F17
P 4100 3200
F 0 "P6" H 4100 3400 50  0000 C CNN
F 1 "Charge" V 4200 3200 50  0000 C CNN
F 2 "Connector_PinHeader_2.54mm:PinHeader_1x03_P2.54mm_Vertical" H 4100 3200 50  0001 C CNN
F 3 "" H 4100 3200 50  0000 C CNN
	1    4100 3200
	-1   0    0    1   
$EndComp
$Comp
L Connector:TestPoint TP7
U 1 1 586E64E6
P 2900 4900
F 0 "TP7" V 2900 5150 50  0000 C CNN
F 1 "TEST_1P" V 2800 5150 50  0001 C CNN
F 2 "TestPoint:TestPoint_Pad_1.0x1.0mm" H 3100 4900 50  0001 C CNN
F 3 "" H 3100 4900 50  0000 C CNN
	1    2900 4900
	0    1    1    0   
$EndComp
$Comp
L Connector:TestPoint TP8
U 1 1 586E658C
P 2900 5000
F 0 "TP8" V 2900 5250 50  0000 C CNN
F 1 "TEST_1P" V 2800 5250 50  0001 C CNN
F 2 "TestPoint:TestPoint_Pad_D1.0mm" H 3100 5000 50  0001 C CNN
F 3 "" H 3100 5000 50  0000 C CNN
	1    2900 5000
	0    1    1    0   
$EndComp
Text Label 2800 5000 0    40   ~ 0
MISO
Text Label 2800 4900 0    40   ~ 0
MOSI
NoConn ~ 2800 5600
$Comp
L Connector:TestPoint TP9
U 1 1 586E81F2
P 2900 6100
F 0 "TP9" V 2900 6350 50  0000 C CNN
F 1 "TEST_1P" V 2800 6350 50  0001 C CNN
F 2 "Connector_PinHeader_2.54mm:PinHeader_1x01_P2.54mm_Vertical" H 3100 6100 50  0001 C CNN
F 3 "" H 3100 6100 50  0000 C CNN
	1    2900 6100
	0    1    1    0   
$EndComp
$Comp
L Connector:USB_B_Mini P3
U 1 1 592D999B
P 4100 2600
F 0 "P3" H 4425 2475 50  0000 C CNN
F 1 "USB_Micro" V 3850 2600 50  0000 C CNN
F 2 "Connector_USB:USB_Mini-B_Lumberg_2486_01_Horizontal" V 4050 2500 50  0001 C CNN
F 3 "" V 4050 2500 50  0000 C CNN
	1    4100 2600
	0    1    -1   0   
$EndComp
$Comp
L Connector:TestPoint TP10
U 1 1 592DD4AC
P 2200 7350
F 0 "TP10" V 2200 7600 50  0000 C CNN
F 1 "TEST_1P" V 2100 7600 50  0001 C CNN
F 2 "TestPoint:TestPoint_Pad_1.0x1.0mm" H 2400 7350 50  0001 C CNN
F 3 "" H 2400 7350 50  0000 C CNN
	1    2200 7350
	0    1    1    0   
$EndComp
$Comp
L mcp1700:MCP1700 U1
U 1 1 592DB8B6
P 9700 1450
F 0 "U1" H 9500 1250 50  0000 C CNN
F 1 "MCP1700" H 9700 1250 50  0000 L CNN
F 2 "Package_TO_SOT_SMD:SOT-23_Handsoldering" H 9700 1350 50  0000 C CIN
F 3 "" H 9700 1450 50  0000 C CNN
	1    9700 1450
	-1   0    0    1   
$EndComp
Text Label 2800 4800 0    40   ~ 0
GPIO4
Text Label 2800 6900 0    40   ~ 0
GPIO0
$Comp
L Jumper:SolderJumper_3_Bridged12 J1
U 1 1 5A2C3091
P 1050 800
F 0 "J1" H 1050 900 50  0000 C CNN
F 1 "GS3" V 1100 650 50  0000 C CNN
F 2 "Jumper:SolderJumper-3_P1.3mm_Bridged12_RoundedPad1.0x1.5mm" V 1138 726 50  0001 C CNN
F 3 "" H 1050 800 50  0001 C CNN
	1    1050 800 
	0    -1   -1   0   
$EndComp
$Comp
L power:VCC #PWR014
U 1 1 5A2C395A
P 950 600
F 0 "#PWR014" H 950 450 50  0001 C CNN
F 1 "VCC" V 950 800 50  0000 C CNN
F 2 "" H 950 600 50  0000 C CNN
F 3 "" H 950 600 50  0000 C CNN
	1    950  600 
	0    -1   -1   0   
$EndComp
$Comp
L Connector:TestPoint TP12
U 1 1 5A2C6343
P 7300 5850
F 0 "TP12" V 7300 6100 50  0000 C CNN
F 1 "TEST_1P" V 7200 6100 50  0001 C CNN
F 2 "TestPoint:TestPoint_Pad_1.0x1.0mm" H 7500 5850 50  0001 C CNN
F 3 "" H 7500 5850 50  0000 C CNN
	1    7300 5850
	0    1    1    0   
$EndComp
$Comp
L Connector_Generic:Conn_01x02 P7
U 1 1 5A2C6F7D
P 8250 3950
F 0 "P7" H 8250 4100 50  0000 C CNN
F 1 "OnOff" V 8350 3950 50  0000 C CNN
F 2 "Connector_PinHeader_2.54mm:PinHeader_1x02_P2.54mm_Vertical" H 8250 3950 50  0001 C CNN
F 3 "" H 8250 3950 50  0000 C CNN
	1    8250 3950
	0    -1   1    0   
$EndComp
Text Label 4700 3200 1    60   ~ 0
Prog
Text Label 8100 3700 0    20   ~ 0
GNDout
$Comp
L Device:C C4
U 1 1 5B23F421
P 8800 2950
F 0 "C4" H 8825 3050 50  0000 L CNN
F 1 "1u" H 8825 2850 50  0000 L CNN
F 2 "Capacitor_SMD:C_1206_3216Metric_Pad1.42x1.75mm_HandSolder" H 8838 2800 50  0001 C CNN
F 3 "" H 8800 2950 50  0000 C CNN
	1    8800 2950
	1    0    0    1   
$EndComp
Wire Wire Line
	7300 5850 7300 5900
Wire Wire Line
	6900 4950 7800 4950
Wire Wire Line
	5300 4850 5300 5150
Wire Wire Line
	5300 4500 5300 4550
Wire Wire Line
	7800 4500 7800 4550
Wire Wire Line
	7300 6300 7300 6200
Connection ~ 7300 6300
Wire Wire Line
	9700 3700 9700 1700
Wire Wire Line
	5500 1400 6900 1400
Connection ~ 8500 3700
Connection ~ 9700 3700
Connection ~ 10200 1400
Connection ~ 9200 1400
Wire Wire Line
	7800 4850 7800 4950
Connection ~ 7800 4950
Wire Wire Line
	6900 5350 7300 5350
Connection ~ 5600 4500
Wire Wire Line
	5600 4500 5600 4550
Wire Wire Line
	5600 4950 5600 4850
Wire Wire Line
	10600 3700 10600 2800
Connection ~ 10600 3700
Wire Wire Line
	1300 1650 1300 1400
Wire Wire Line
	1300 1400 1800 1400
Wire Wire Line
	3600 1400 3600 1500
Wire Wire Line
	3000 1500 3000 1400
Connection ~ 3000 1400
Wire Wire Line
	1800 1500 1800 1400
Connection ~ 1800 1400
Wire Wire Line
	2400 1500 2400 1400
Connection ~ 2400 1400
Wire Wire Line
	1700 800  1700 1500
Wire Wire Line
	2300 1500 2300 800 
Connection ~ 2300 800 
Wire Wire Line
	1900 1100 1900 1200
Wire Wire Line
	2500 1500 2500 1200
Connection ~ 2500 1200
Wire Wire Line
	2000 1100 2600 1100
Wire Wire Line
	2000 1500 2000 1100
Wire Wire Line
	2600 1500 2600 1100
Connection ~ 2600 1100
Connection ~ 1700 800 
Connection ~ 1900 800 
Wire Wire Line
	3200 800  3200 1500
Connection ~ 3200 800 
Wire Wire Line
	3900 800  3900 1500
Wire Wire Line
	3100 1100 3100 1500
Wire Wire Line
	3100 1100 3300 1100
Connection ~ 3100 1100
Connection ~ 3100 800 
Connection ~ 2600 800 
Connection ~ 1900 1200
Wire Wire Line
	3800 1500 3800 1100
Wire Wire Line
	10600 1400 10600 2500
Wire Wire Line
	8500 3700 8500 3100
Wire Wire Line
	8500 2400 8500 2600
Wire Wire Line
	9000 2600 8800 2600
Connection ~ 8500 2600
Wire Wire Line
	9200 1700 9700 1700
Connection ~ 9700 1700
Connection ~ 8500 1400
Wire Wire Line
	7200 5150 7200 4850
Wire Wire Line
	7200 4500 7200 4550
Connection ~ 7200 4500
Wire Wire Line
	1900 1200 2500 1200
Wire Wire Line
	6300 6300 7300 6300
Connection ~ 6300 6300
Wire Wire Line
	3800 1100 4000 1100
Connection ~ 10600 1400
Wire Wire Line
	5300 4500 5600 4500
Wire Wire Line
	10100 1400 10200 1400
Connection ~ 6300 4500
Wire Wire Line
	5100 3700 5100 3200
Wire Wire Line
	3700 3700 4300 3700
Connection ~ 5100 3700
Wire Wire Line
	3700 2600 3700 2700
Connection ~ 4300 3700
Connection ~ 4700 3700
Wire Wire Line
	4300 2300 4500 2300
Wire Wire Line
	5100 2300 5100 2600
Wire Wire Line
	4700 3550 4700 3700
Wire Wire Line
	4700 3000 4700 3250
Wire Wire Line
	6000 3700 6000 3600
Wire Wire Line
	5450 3000 6000 3000
Wire Wire Line
	6000 2950 6000 3000
Connection ~ 6000 3000
Wire Wire Line
	6000 2750 6000 2700
Wire Wire Line
	6000 3250 6000 3300
Wire Wire Line
	6000 2300 6000 2400
Connection ~ 5100 2300
Wire Wire Line
	4500 3550 4500 3700
Connection ~ 4500 3700
Wire Wire Line
	4500 2300 4500 3200
Connection ~ 4500 2300
Wire Wire Line
	7900 3400 7600 3400
Wire Wire Line
	6900 3400 6650 3400
Wire Wire Line
	6900 1400 6900 3300
Wire Wire Line
	6900 3500 6900 3700
Connection ~ 6900 3500
Connection ~ 6900 3300
Connection ~ 6900 3700
Connection ~ 6000 3700
Wire Wire Line
	5500 1400 5500 2800
Connection ~ 6900 1400
Wire Wire Line
	2900 6300 2800 6300
Wire Wire Line
	2900 6400 2800 6400
Wire Wire Line
	2900 6000 2800 6000
Wire Wire Line
	2900 5900 2800 5900
Wire Wire Line
	2900 6100 2800 6100
Wire Wire Line
	2900 5700 2800 5700
Wire Wire Line
	2900 6500 2800 6500
Wire Wire Line
	2900 4700 2800 4700
Wire Wire Line
	2900 6800 2800 6800
Wire Wire Line
	2900 6700 2800 6700
Wire Wire Line
	2900 6600 2800 6600
Wire Wire Line
	2900 5100 2800 5100
Wire Wire Line
	4300 3200 4500 3200
Connection ~ 4500 3200
Wire Wire Line
	2900 4900 2800 4900
Wire Wire Line
	2900 5000 2800 5000
Wire Wire Line
	2800 5800 2900 5800
Wire Wire Line
	2800 6100 2800 6150
Wire Wire Line
	4300 3300 4300 3700
Connection ~ 3700 2700
Wire Wire Line
	9950 5300 9900 5300
Wire Wire Line
	9900 5300 9900 5450
Wire Wire Line
	8100 3700 8250 3700
Wire Wire Line
	8250 3700 8250 3750
Wire Wire Line
	8350 3750 8350 3700
Wire Wire Line
	8350 3700 8500 3700
Wire Wire Line
	8500 1400 8500 2100
Wire Wire Line
	8800 2800 8800 2600
Connection ~ 8800 2600
Wire Wire Line
	8800 3100 8800 3700
Connection ~ 8800 3700
Wire Wire Line
	4300 3100 4300 3200
Wire Wire Line
	6650 3500 6900 3500
$Comp
L Connector_Generic:Conn_01x04 P10
U 1 1 5B244BF5
P 2400 1700
F 0 "P10" H 2400 1950 50  0000 C CNN
F 1 "CONN_01x04" V 2500 1700 50  0000 C CNN
F 2 "Connector_PinHeader_2.54mm:PinHeader_1x04_P2.54mm_Vertical" H 2400 1700 50  0001 C CNN
F 3 "" H 2400 1700 50  0000 C CNN
	1    2400 1700
	0    -1   1    0   
$EndComp
Wire Wire Line
	7300 6300 7800 6300
Wire Wire Line
	8500 3700 8800 3700
Wire Wire Line
	9700 3700 10600 3700
Wire Wire Line
	10200 1400 10600 1400
Wire Wire Line
	9200 1400 9300 1400
Wire Wire Line
	5600 4500 6300 4500
Wire Wire Line
	3000 1400 3600 1400
Wire Wire Line
	1800 1400 2400 1400
Wire Wire Line
	2400 1400 3000 1400
Wire Wire Line
	2300 800  2600 800 
Wire Wire Line
	2500 1200 2700 1200
Wire Wire Line
	2600 1100 2700 1100
Wire Wire Line
	1700 800  1900 800 
Wire Wire Line
	1900 800  2300 800 
Wire Wire Line
	3200 800  3900 800 
Wire Wire Line
	3100 800  3200 800 
Wire Wire Line
	2600 800  3100 800 
Wire Wire Line
	1900 1200 1900 1500
Wire Wire Line
	8500 2600 8500 2800
Wire Wire Line
	9700 1700 10200 1700
Wire Wire Line
	8500 1400 9200 1400
Wire Wire Line
	7200 4500 7800 4500
Wire Wire Line
	6300 4500 7200 4500
Wire Wire Line
	5100 3700 6000 3700
Wire Wire Line
	4300 3700 4500 3700
Wire Wire Line
	4700 3700 5100 3700
Wire Wire Line
	6000 3000 6000 3050
Wire Wire Line
	5100 2300 6000 2300
Wire Wire Line
	4500 3700 4700 3700
Wire Wire Line
	4500 2300 5100 2300
Wire Wire Line
	6900 3300 6900 3400
Wire Wire Line
	6900 3700 7700 3700
Wire Wire Line
	6000 3700 6900 3700
Wire Wire Line
	6900 1400 8500 1400
Wire Wire Line
	4500 3200 4500 3250
Wire Wire Line
	3700 2700 3700 3700
Wire Wire Line
	8800 2600 8500 2600
Wire Wire Line
	8800 3700 9700 3700
Wire Wire Line
	6300 6250 6300 6300
Wire Wire Line
	5700 4950 5600 4950
Text GLabel 7000 5950 2    40   Input ~ 0
RST
Wire Wire Line
	6900 5950 7000 5950
Wire Wire Line
	5700 5150 5300 5150
Wire Wire Line
	5600 5350 5700 5350
Wire Wire Line
	7000 5750 6900 5750
Wire Wire Line
	7000 5550 6900 5550
Wire Wire Line
	7300 5850 6900 5850
Connection ~ 7300 5850
Wire Wire Line
	6900 5150 7200 5150
Connection ~ 7200 5150
Wire Wire Line
	7200 5150 7300 5150
Wire Wire Line
	7000 5050 6900 5050
Wire Wire Line
	7000 5250 6900 5250
Wire Wire Line
	7000 5450 6900 5450
Wire Wire Line
	7800 4950 7800 5500
Wire Wire Line
	7800 5600 7800 6300
NoConn ~ 5700 5550
NoConn ~ 5700 5650
NoConn ~ 5700 5750
NoConn ~ 5700 5850
NoConn ~ 5700 5950
NoConn ~ 5700 6050
Wire Wire Line
	6300 4750 6300 4500
Wire Wire Line
	2200 4300 2200 4200
Wire Wire Line
	2200 4200 2300 4200
Connection ~ 2200 4200
Wire Wire Line
	2300 4200 2300 4300
Connection ~ 2300 4200
Wire Wire Line
	2200 7300 2200 7350
Connection ~ 2200 7350
Wire Wire Line
	2200 7350 2200 7400
Connection ~ 2800 6100
Wire Wire Line
	1200 800  1700 800 
Wire Wire Line
	950  600  1050 600 
Wire Wire Line
	950  1000 1050 1000
Wire Wire Line
	6900 5650 7000 5650
$Comp
L Connector_Generic:Conn_01x02 P8
U 1 1 5BB20CE4
P 9100 5300
F 0 "P8" H 9100 5450 50  0000 C CNN
F 1 "Power" V 9200 5300 50  0000 C CNN
F 2 "Connector_PinHeader_2.54mm:PinHeader_1x02_P2.54mm_Vertical" H 9100 5300 50  0001 C CNN
F 3 "" H 9100 5300 50  0000 C CNN
	1    9100 5300
	1    0    0    1   
$EndComp
$Comp
L power:GND #PWR010
U 1 1 5BB20FBA
P 8850 5450
F 0 "#PWR010" H 8850 5200 50  0001 C CNN
F 1 "GND" H 8850 5300 50  0000 C CNN
F 2 "" H 8850 5450 50  0000 C CNN
F 3 "" H 8850 5450 50  0000 C CNN
	1    8850 5450
	1    0    0    -1  
$EndComp
$Comp
L power:VCC #PWR09
U 1 1 5BB2105B
P 8850 5050
F 0 "#PWR09" H 8850 4900 50  0001 C CNN
F 1 "VCC" H 8850 5200 50  0000 C CNN
F 2 "" H 8850 5050 50  0000 C CNN
F 3 "" H 8850 5050 50  0000 C CNN
	1    8850 5050
	1    0    0    -1  
$EndComp
Wire Wire Line
	8850 5050 8850 5200
Wire Wire Line
	8850 5200 8900 5200
Wire Wire Line
	8900 5300 8850 5300
Wire Wire Line
	8850 5300 8850 5450
Text Label 1350 800  0    50   ~ 0
SensPwr
$Comp
L Connector:TestPoint TP11
U 1 1 5BFF561F
P 1050 1000
F 0 "TP11" V 1050 1250 50  0000 C CNN
F 1 "TEST_1P" V 950 1250 50  0001 C CNN
F 2 "TestPoint:TestPoint_Pad_1.5x1.5mm" H 1250 1000 50  0001 C CNN
F 3 "" H 1250 1000 50  0000 C CNN
	1    1050 1000
	-1   0    0    1   
$EndComp
Connection ~ 1050 1000
$EndSCHEMATC
